Day 1
…
Note: We usually construct pipelines like these incrementally, often checking as we to make sure things work as expected. Often that checking is done like we saw above, with %>% head() or similar as the last step. As we determine next steps, this checker line gets pushed further down in the chain of execution. Just remember to remove it when youre done building the pipeline! Another great tool is the new ViewPipeSteps addin, which opens up a tab for each step in a pipeline! You need to install it from github like so:

devtools::install_github("daranzolin/ViewPipeSteps")

Select this text, then from the addins pulldown, select View Pipe Chain Steps

library(ViewPipeSteps)
gapminder %>% 
    group_by(country) %>% 
    mutate(mean_lifeExp_country = mean(lifeExp)) %>% 
    ungroup() %>% 
    group_by(year) %>% 
    mutate(mean_lifeExp_year = mean(lifeExp)) 

## # A tibble: 1,704 x 8
## # Groups:   year [12]
##    country continent  year lifeExp    pop gdpPercap mean_lifeExp_co
##    <fct>   <fct>     <int>   <dbl>  <int>     <dbl>            <dbl>
##  1 Afghan Asia       1952    28.8 8.43e6      779.             37.5
##  2 Afghan Asia       1957    30.3 9.24e6      821.             37.5
##  3 Afghan Asia       1962    32.0 1.03e7      853.             37.5
##  4 Afghan Asia       1967    34.0 1.15e7      836.             37.5
##  5 Afghan Asia       1972    36.1 1.31e7      740.             37.5
##  6 Afghan Asia       1977    38.4 1.49e7      786.             37.5
##  7 Afghan Asia       1982    39.9 1.29e7      978.             37.5
##  8 Afghan Asia       1987    40.8 1.39e7      852.             37.5
##  9 Afghan Asia       1992    41.7 1.63e7      649.             37.5
## 10 Afghan Asia       1997    41.8 2.22e7      635.             37.5
## #  with 1,694 more rows, and 1 more variable: mean_lifeExp_year <dbl>
…
